{
  "#!/usr/bin/env ifmain...": {
    "prefix": "mainstart",
    "body": "#!/usr/bin/env python\n\nimport argparse\nfrom typing import List\nimport sys\nimport logging\n\nlog = logging.getLogger(__name__)\n\n\ndef parseargs(args: List[str]) -> argparse.Namespace:\n    parser = argparse.ArgumentParser()\n    parser.add_argument(\"--thing1\", help=\"thing1\")\n    return parser.parse_args(args)\n\ndef main(_args: List[str]) -> None:\n    args = parseargs(_args)\n    ${0}\n    pass\n\nif __name__ == \"__main__\":\n    main(sys.argv[1:])\n",
    "description": "Adds shebang line for default python interpreter."
  }
}
